Tyler Scheel's Sports Data Blog – datacharttrials
…
Chart 3: Seperation

NGSplayer |> group_by(TEAM) |>
  summarise(
    AvgSEP = mean(SEP)) |> arrange(desc(AvgSEP))

# A tibble: 32 × 2
   TEAM  AvgSEP
   <chr>  <dbl>
 1 KC      3.56
 2 CHI     3.47
 3 BUF     3.38
 4 CLE     3.37
 5 DET     3.3 
 6 NYG     3.3 
 7 ARI     3.28
 8 GB      3.24
 9 SF      3.23
10 WAS     3.22
# ℹ 22 more rows

More Stuff I should maybe use:

TeamAdv23 |> mutate(
  TrueCatchRate = Rec/OnTgt) |> arrange(TrueCatchRate)

# A tibble: 32 × 18
   Tm        G   Tgt OnTgt   Rec   Yds    TD  `1D`   YBC YBCpr   YAC YACpr  ADOT
   <chr> <dbl> <dbl> <dbl> <dbl> <dbl> <dbl> <dbl> <dbl> <dbl> <dbl> <dbl> <dbl>
 1 Gree…     8   261   190   156  1734    12    86   912   5.8   822   5.3   9  
 2 Los …     9   316   220   184  2242     8   104  1321   7.2   921   5     8.1
 3 Dall…     8   273   227   192  2042    13   102  1088   5.7   954   5     7.5
 4 Minn…     9   351   285   244  2590    20   126  1468   6    1122   4.6   6.8
 5 Pitt…     8   262   184   159  1646     7    70   791   5     855   5.4   7.3
 6 Kans…     9   340   267   232  2473    17   120  1060   4.6  1413   6.1   6.6
 7 Jack…     8   275   216   189  1956     9    90  1049   5.6   907   4.8   6.9
 8 Detr…     8   293   228   200  2174    12   107  1182   5.9   992   5     6.5
 9 Tamp…     8   277   203   179  1865    12    87   968   5.4   897   5     7.9
10 New …     9   322   231   204  1940    10    89   920   4.5  1020   5     7.2
# ℹ 22 more rows
# ℹ 5 more variables: BrkTkl <dbl>, RecpBRT <dbl>, Drop <dbl>, DropPCT <dbl>,
#   TrueCatchRate <dbl>
…
