Tyler Scheel's Sports Data Blog – project2trials
…
The following object is masked from 'package:readr':

    col_factor

library(patchwork)

This is going to be a lot of experiments, I don’t know how I’m gonna do this. I’m going to start out by trying to calculate wAV shares by draft class.

Draft22to15 <- read.csv("22to15FullDrafts.csv")

These next 2 blocks are just for fun. First, seeing which team has the most picks in the last 8 years, then seeing which team has the most first team all-pro selections.

Draft22to15 |> group_by(Tm) |> summarise(totalpicks = n()) |> arrange(desc(totalpicks))

# A tibble: 32 × 2
   Tm    totalpicks
   <chr>      <int>
 1 MIN           85
 2 BAL           76
 3 CLE           76
 4 GB            73
 5 CIN           71
 6 NE            71
 7 WAS           71
 8 DAL           70
 9 DEN           70
10 SF            70
# ℹ 22 more rows

Draft22to15 |> group_by(Tm) |> summarise(AllPro1 = sum(AP1)) |> arrange(desc(AllPro1))

# A tibble: 32 × 2
   Tm    AllPro1
   <chr>   <int>
 1 KC          9
 2 IND         7
 3 SF          7
 4 BAL         5
 5 MIA         5
 6 TEN         5
 7 DAL         4
 8 LAR         4
 9 MIN         4
10 ARI         3
# ℹ 22 more rows
…
